Week 6 - Conceptual Questions/Writing R Functions/API Query
…
# Load in package
library(lubridate)
library(dplyr)

# apple1 changed publishedAt to date: ymd_hms. Then arranged by published date.
apple1 <- apple1 %>%
  mutate(publishedAt = ymd_hms(publishedAt)) %>%
  arrange(publishedAt)

# Added a new column using mutate for object 1, apple1
apple1_pub <- apple1 %>%
  mutate(pub_diff = publishedAt - lag(publishedAt))
apple1_pub

# A tibble: 100 × 9
   source$id $name author title description url   urlToImage publishedAt        
   <chr>     <chr> <chr>  <chr> <chr>       <chr> <chr>      <dttm>             
 1 <NA>      Paul… Antho… 2024… "Stellanti… http… https://p… 2024-10-16 08:44:27
 2 <NA>      Hdbl… HDblo… Nuov… "Dovremo a… http… https://h… 2024-10-16 08:45:00
 3 <NA>      road… dave … Zwif… "Great val… http… <NA>       2024-10-16 08:45:00
 4 <NA>      Shif… Enes … Moto… "Akıllı te… http… https://a… 2024-10-16 08:45:00
 5 <NA>      Vari… Ellis… Gary… "Oscar-win… http… https://v… 2024-10-16 08:45:07
 6 <NA>      Paul… Hazri… Leap… "Stellanti… http… https://p… 2024-10-16 08:45:19
 7 <NA>      [Rem… <NA>   [Rem… "[Removed]" http… <NA>       2024-10-16 08:46:00
 8 <NA>      mobi… Olive… Xiao… "Fitness-R… http… https://w… 2024-10-16 08:46:10
 9 <NA>      Ipho… Jean-… Oubl… "Un smartp… http… https://w… 2024-10-16 08:47:04
10 <NA>      Fran… Hugo … Éter… "Les deux … http… https://i… 2024-10-16 08:47:09
# ℹ 90 more rows
# ℹ 2 more variables: content <chr>, pub_diff <drtn>

# apple2 changed publishedAt to date: ymd_hms. Then arranged by published date.
apple2 <- apple2 %>%
  mutate(publishedAt = ymd_hms(publishedAt)) %>%
  arrange(publishedAt)

# Added a new column using mutate for object 2, apple2
apple2_pub <- apple2 %>%
  mutate(pub_diff = publishedAt - lag(publishedAt))
apple2_pub

# A tibble: 100 × 9
   source$id $name author title description url   urlToImage publishedAt        
   <chr>     <chr> <chr>  <chr> <chr>       <chr> <chr>      <dttm>             
 1 <NA>      Paul… Antho… 2024… "Stellanti… http… https://p… 2024-10-16 08:44:27
 2 <NA>      Hdbl… HDblo… Nuov… "Dovremo a… http… https://h… 2024-10-16 08:45:00
 3 <NA>      road… dave … Zwif… "Great val… http… <NA>       2024-10-16 08:45:00
 4 <NA>      Shif… Enes … Moto… "Akıllı te… http… https://a… 2024-10-16 08:45:00
 5 <NA>      Vari… Ellis… Gary… "Oscar-win… http… https://v… 2024-10-16 08:45:07
 6 <NA>      Paul… Hazri… Leap… "Stellanti… http… https://p… 2024-10-16 08:45:19
 7 <NA>      [Rem… <NA>   [Rem… "[Removed]" http… <NA>       2024-10-16 08:46:00
 8 <NA>      mobi… Olive… Xiao… "Fitness-R… http… https://w… 2024-10-16 08:46:10
 9 <NA>      Ipho… Jean-… Oubl… "Un smartp… http… https://w… 2024-10-16 08:47:04
10 <NA>      Fran… Hugo … Éter… "Les deux … http… https://i… 2024-10-16 08:47:09
# ℹ 90 more rows
# ℹ 2 more variables: content <chr>, pub_diff <drtn>

6. For one data frame, subset the data frame to only return the date version of publishedAt and the pub_diff variables.

# Taking data frame, apple1, we will subset and only select two columns, publishedAt and pub_diff

apple1_subset <- apple1_pub %>% 
  select(publishedAt, pub_diff)
apple1_subset

# A tibble: 100 × 2
   publishedAt         pub_diff
   <dttm>              <drtn>  
 1 2024-10-16 08:44:27 NA secs 
 2 2024-10-16 08:45:00 33 secs 
 3 2024-10-16 08:45:00  0 secs 
 4 2024-10-16 08:45:00  0 secs 
 5 2024-10-16 08:45:07  7 secs 
 6 2024-10-16 08:45:19 12 secs 
 7 2024-10-16 08:46:00 41 secs 
 8 2024-10-16 08:46:10 10 secs 
 9 2024-10-16 08:47:04 54 secs 
10 2024-10-16 08:47:09  5 secs 
# ℹ 90 more rows
…
